Compute time varying correlation coefficients — tcor • timevarcorr
…
## Same using tidyverse packages (dplyr and ggplot2 must be installed)
## see https://github.com/courtiol/timevarcorr for more examples of this kind

if (require("dplyr", warn.conflicts = FALSE)) {

  stockprice |>
    reframe(tcor(x = SP500, y = FTSE100, t = DateID,
                 h = 200, CI = TRUE)) -> res_tidy
  res_tidy
}
#> Loading required package: dplyr
#> # A tibble: 4,326 × 5
#>    t              r     SE   lwr   upr
#>    <date>     <dbl>  <dbl> <dbl> <dbl>
#>  1 2000-04-03 0.453 0.0823 0.292 0.615
#>  2 2000-04-04 0.453 0.0821 0.292 0.614
#>  3 2000-04-05 0.453 0.0819 0.293 0.614
#>  4 2000-04-06 0.453 0.0817 0.293 0.613
#>  5 2000-04-07 0.453 0.0815 0.294 0.613
#>  6 2000-04-10 0.453 0.0813 0.294 0.612
#>  7 2000-04-11 0.453 0.0811 0.294 0.612
#>  8 2000-04-12 0.452 0.0809 0.294 0.611
#>  9 2000-04-13 0.452 0.0807 0.294 0.610
#> 10 2000-04-14 0.452 0.0805 0.294 0.610
#> # ℹ 4,316 more rows
…
